{
	"info": {
		"_postman_id": "2133bdae-f41a-430c-ab39-fa6d19f45945",
		"name": "TestGsoxware",
		"schema": "https://schema.getpostman.com/json/collection/v2.1.0/collection.json"
	},
	"item": [
		{
			"name": "login",
			"request": {
				"method": "POST",
				"header": [],
				"body": {
					"mode": "raw",
					"raw": "{\r\n    \"usernameOrEmail\" : \"test1\",\r\n    \"password\": \"password\"\r\n}",
					"options": {
						"raw": {
							"language": "json"
						}
					}
				},
				"url": {
					"raw": "localhost:8080/api/auth/iniciarSesion",
					"host": [
						"localhost"
					],
					"port": "8080",
					"path": [
						"api",
						"auth",
						"iniciarSesion"
					]
				}
			},
			"response": []
		},
		{
			"name": "getAllTransaction",
			"request": {
				"method": "GET",
				"header": [],
				"url": {
					"raw": "localhost:8080/api/transaction",
					"host": [
						"localhost"
					],
					"port": "8080",
					"path": [
						"api",
						"transaction"
					]
				}
			},
			"response": []
		},
		{
			"name": "getById",
			"request": {
				"method": "GET",
				"header": [],
				"url": {
					"raw": "localhost:8080/api/transaction/1",
					"host": [
						"localhost"
					],
					"port": "8080",
					"path": [
						"api",
						"transaction",
						"1"
					]
				}
			},
			"response": []
		},
		{
			"name": "createTransaction",
			"request": {
				"auth": {
					"type": "bearer",
					"bearer": [
						{
							"key": "token",
							"value": "eyJhbGciOiJIUzUxMiJ9.eyJzdWIiOiJ5b3JtYW4yMzMwQGdtYWlsLmNvbSIsImlhdCI6MTY0OTYxMDEwMywiZXhwIjoxNjUwMjE0OTAzfQ.QXDqsnopM8L6Dxx_5vhov8qMlU_oMuszg8O8ZewFYdrGp8aozFmETNc5RRSM5UiShvPWjQi4AQW1I-Zlj3afCg",
							"type": "string"
						}
					]
				},
				"method": "POST",
				"header": [],
				"body": {
					"mode": "raw",
					"raw": "{\r\n    \"nbName\" : \"Prueba2\",\r\n    \"nbLastName\": \"Postman2\",\r\n    \"inState\": \"Activo\",\r\n    \"feCreateOn\" : \"2022-05-10\"\r\n\r\n}",
					"options": {
						"raw": {
							"language": "json"
						}
					}
				},
				"url": {
					"raw": "localhost:8080/api/transaction/create",
					"host": [
						"localhost"
					],
					"port": "8080",
					"path": [
						"api",
						"transaction",
						"create"
					]
				}
			},
			"response": []
		},
		{
			"name": "updateTransaction",
			"request": {
				"method": "GET",
				"header": []
			},
			"response": []
		},
		{
			"name": "DeleteTransaction",
			"request": {
				"method": "GET",
				"header": []
			},
			"response": []
		}
	]
}